22,2800
14,2670
37,2800
15,2784
38,2800
172,2620
249,2620
84,2470
242,2620
100,2475
114,2620
37,2620
96,2448
116,2648
94,2525
47,1000
48,980
15,1000
45,1112
23,1000
44,1000
23,2188
47,1028
31,2200
48,1000
48,980
47,728
26,2510
58,1500
128,2500
120,2620
120,2528
121,2630
122,2550
61,1150
50,1150
50,1150
60,1147
